#[p5noKG`S

{Fng|=mt$
=,@$-

8+SgQ|r_\

RM6$`xa!~A

ShCH7?E-SA

d^;)Uz%bh

.#C<~-y)
PZA(fcMR-

`W

d

a

HI,RE=gV+1

?O}=PH

Ol
#jVs&

9CTcJ6S
Tg
r[

We:f#Q8h

Ht_{+SW

l_1M$HXRx

`dULemW\Iq

lSdX

Johnny Smith
Granny Smith
